%YAML 1.1
%TAG !u! tag:unity3d.com,2011:
--- !u!21 &2100000
Material:
  serializedVersion: 8
  m_ObjectHideFlags: 0
  m_CorrespondingSourceObject: {fileID: 0}
  m_PrefabInstance: {fileID: 0}
  m_PrefabAsset: {fileID: 0}
  m_Name: Unlit_ground
  m_Shader: {fileID: 4800000, guid: d5c3f2d1bdd6d5d458a48d2d46ac6c69, type: 3}
  m_ValidKeywords:
  - USE_CS
  - USE_RT
  - USE_S
  - USE_SC
  m_InvalidKeywords: []
  m_LightmapFlags: 4
  m_EnableInstancingVariants: 0
  m_DoubleSidedGI: 0
  m_CustomRenderQueue: -1
  stringTagMap: {}
  disabledShaderPasses: []
  m_SavedProperties:
    serializedVersion: 3
    m_TexEnvs:
    - _Distortion:
        m_Texture: {fileID: 2800000, guid: f49d05f26e0e74f40aa34b506018bd31, type: 3}
        m_Scale: {x: 1, y: 1}
        m_Offset: {x: 0, y: 0}
    - _GrassTex:
        m_Texture: {fileID: 2800000, guid: 7d08d0a0cf3d08e46bc40e51d2b3e18c, type: 3}
        m_Scale: {x: 1, y: 1}
        m_Offset: {x: 0, y: 0}
    - _GroundTex:
        m_Texture: {fileID: 2800000, guid: 920a7d07e33ec90468fd675d098c2bc4, type: 3}
        m_Scale: {x: 1, y: 1}
        m_Offset: {x: 0, y: 0}
    - _MainTex:
        m_Texture: {fileID: 2800000, guid: deab20c81537635458a0c3974149c63d, type: 3}
        m_Scale: {x: 1, y: 1}
        m_Offset: {x: 0, y: 0}
    - _NoGrassTex:
        m_Texture: {fileID: 2800000, guid: 408ee70cf97117c47896d6717f4a9826, type: 3}
        m_Scale: {x: 1, y: 1}
        m_Offset: {x: 0, y: 0}
    - _Noise:
        m_Texture: {fileID: 2800000, guid: a98050d8f7f704640a4c9fdd0463d087, type: 3}
        m_Scale: {x: 1, y: 1}
        m_Offset: {x: 0, y: 0}
    - _TerrainHolesTexture:
        m_Texture: {fileID: 0}
        m_Scale: {x: 1, y: 1}
        m_Offset: {x: 0, y: 0}
    m_Ints: []
    m_Floats:
    - _FadeDistanceEnd: 26
    - _FadeDistanceStart: 16
    - _Glossiness: 0.5
    - _GrassCut: 0
    - _GrassSaturation: 2
    - _GrassShading: 0.197
    - _GrassThinness: 0.4
    - _GrassThinnessIntersection: 0.43
    - _LightIntensity: 1
    - _Metallic: 0
    - _MinimumNumberStacks: 2
    - _NearCameraSmoosh: 0.5
    - _NoisePower: 2
    - _NumberOfStacks: 12
    - _OffsetValue: 1
    - _ProceduralDistance: 5.5
    - _ProceduralStrength: 1.5
    - _RimMax: 0.62
    - _RimMin: 0.241
    - _RimPower: 3.14
    - _Shininess: 0.078125
    - _TilingN1: 6.06
    - _TilingN2: 0.05
    - _TilingN3: 1
    - _UseAmbientLight: 0
    - _UseCS: 1
    - _UsePR: 0
    - _UseRT: 1
    - _UseShadow: 1
    - _UseShadowCast: 1
    - _UseSuperStack: 0
    - _UseTP: 0
    - _UseVR: 0
    - _UseWC: 0
    - _WindForce: 0.35
    - _WindMovement: 0.55
    - _WorldRotation: 0
    - _WorldScale: 10
    m_Colors:
    - _Color: {r: 0.9407008, g: 0.93773586, b: 1, a: 0.64705884}
    - _GroundColor: {r: 0.7, g: 0.68, b: 0.68, a: 1}
    - _OffsetVector: {r: 0, g: 0, b: 0, a: 1}
    - _ProjectedShadowColor: {r: 0.45, g: 0.42, b: 0.04, a: 1}
    - _RimColor: {r: 0.14, g: 0.18, b: 0.09, a: 1}
    - _SelfShadowColor: {r: 0.41, g: 0.41, b: 0.36, a: 1}
    - _SpecColor: {r: 0.5, g: 0.5, b: 0.5, a: 1}
  m_BuildTextureStacks: []
